HTTP/1.1 200 OK
Server: nginx
Date: Sat, 01 Apr 2017 21:48:41 GMT
Content-Type: application/json; charset=utf-8
Content-Length: 1559
Connection: keep-alive
Keep-Alive: timeout=600
Vary: Accept-Encoding
Cache-Control: private, max-age=600
Vary: Authorization
Access-Control-Allow-Origin: *
Access-Control-Allow-Methods: GET, POST, OPTIONS, PUT, DELETE
Access-Control-Allow-Credentials: true
Access-Control-Max-Age: 604800
Access-Control-Allow-Headers: Accept, Authorization, Origin, Content-Type
X-Content-Type-Options: nosniff
Strict-Transport-Security: max-age=31536000;

{
  "message" : "Saturday Night Turn Up!",
  "playlists" : {
    "href" : "https://api.spotify.com/v1/browse/featured-playlists?country=US&timestamp=2017-04-01T21%3A48%3A41&offset=0&limit=1",
    "items" : [ {
      "collaborative" : false,
      "external_urls" : {
        "spotify" : "http://open.spotify.com/user/spotify/playlist/2qlMTcW6AnnaGl7eXWAZP5"
      },
      "href" : "https://api.spotify.com/v1/users/spotify/playlists/2qlMTcW6AnnaGl7eXWAZP5",
      "id" : "2qlMTcW6AnnaGl7eXWAZP5",
      "images" : [ {
        "height" : null,
        "url" : "https://u.scdn.co/images/pl/default/2421ab5358aae6d3efa369fb0af2de22b7133cb5",
        "width" : null
      } ],
      "name" : "Get Turnt",
      "owner" : {
        "external_urls" : {
          "spotify" : "http://open.spotify.com/user/spotify"
        },
        "href" : "https://api.spotify.com/v1/users/spotify",
        "id" : "spotify",
        "type" : "user",
        "uri" : "spotify:user:spotify"
      },
      "public" : null,
      "snapshot_id" : "Gv42Ed8jJDY5VJ+c6svZHue0ui4x1XBl8wEUB1nBixQltNLtym/s0VmsI4PZjc0y",
      "tracks" : {
        "href" : "https://api.spotify.com/v1/users/spotify/playlists/2qlMTcW6AnnaGl7eXWAZP5/tracks",
        "total" : 90
      },
      "type" : "playlist",
      "uri" : "spotify:user:spotify:playlist:2qlMTcW6AnnaGl7eXWAZP5"
    } ],
    "limit" : 1,
    "next" : "https://api.spotify.com/v1/browse/featured-playlists?country=US&timestamp=2017-04-01T21%3A48%3A41&offset=1&limit=1",
    "offset" : 0,
    "previous" : null,
    "total" : 12
  }
}
